{
	"date" : "06-12-2021 08-51-28",
	"events" : 
	[
		{
			"accessControlOnly" : true,
			"deviceIn" : true,
			"deviceOut" : false,
			"id" : "281",
			"name" : "GHSL-KienTest",
			"quota" : 1,
			"time" : 
			{
				"endDate" : "17/01/2022",
				"endDateTime" : "2021-12-06 07:10:00",
				"endTime" : "22:02",
				"startDate" : "17/08/2021",
				"startDateTime" : "2021-12-06 06:50:00",
				"startTime" : "07:00"
			},
			"type" : "LIMIT_QUANTITY"
		}
	]
}