{
    "product":{
        "config":{
            "msgCode": "00",
		    "samId": "014C2328A4AE30",
		    "VinaIDConfig": {
		        "terminalId": "00000048",
		        "merchantId": "00010001",
		        "merchantName": "Căn tin THCS Lý Thánh Tông",
		        "address": "Trường THCS Lý Thánh Tông [Cổng VÀO số 2-1]",
		        "imageFileName": "",
		        "host": "https://api.vinaid.vn/",
		        "hostAMS": "https://api.vinaid.vn:1443/",
		        "transactionToken": "Bearer eyJhbGciOiJIUzUxMiJ9.eyJzdWIiOiJvbmxpbmUiLCJ0ZW5hbnRJZCI6IjIiLCJ0ZXJtaW5hbElkIjoiMDAwMDAwNDgiLCJleHAiOjE2NzAzMTYwOTF9.faaayv8T6pmw4mOqPKGbJ07AUppTUvFb3D_2ABap2eTtLHpTdr68gq5uejuwpXJDVFTPFEbBWwjzkhregKiZSQ",
		        "attendanceToken": "Bearer eyJhbGciOiJIUzUxMiJ9.eyJzdWIiOiJkZXZpY2VAMiIsInRlbmFudElkIjoiMiIsInRlcm1pbmFsSWQiOiIwMDAwMDA0OCIsImV4cCI6MTY3MDMxNjA5MX0.NFjfbg5_fMqJwY5YEDLANxw4IL_4kny_gYIUJz8lqgImHcZSExFsVYjx4daR6pQs7no4Q8ACNQ6j6nX21mrsHQ"
		    },
		    "OrgCode": "CNS",
		    "ConfigloadingDate": "2021-12-06 09:52:19"
        },
        "file_sys_dir":{
            "dir_whitelist":"/home/CnsReader/whitelist/whitelist.txt",
            "dir_attendance":"/home/CnsReader/attendance/logattendance.txt",
            "dir_attendance_temp":"/home/CnsReader/attendance/logattendance_temp.txt",
			"dir_semiboarding": "/home/CnsReader/attendance/SemiBoardingTemp.txt",
			"dir_semiboarding_temp": "/home/CnsReader/attendance/SemiBoarding.txt",
            "dir_event":"/home/CnsReader/event/eventId.txt",
            "dir_pccovid":"/home/CnsReader/attendance/pccovid.txt",
            "dir_pccovid_temp":"/home/CnsReader/attendance/pccovid_temp.txt"
        },
        "url":{
            "url_whitelist":"https://api.vinaid.vn:1443/api/events/white-list/v2",
            "url_keep_alive":"https://api.vinaid.vn/api/terminalState/v2",
            "url_post_attendance":"https://api.vinaid.vn:1443/api/attendance/bulk-upload",
            "url_post_semiboarding":"https://api.vinaid.vn:1443/api/attendance/bulk-upload/semi-boarding",
            "url_delete_notification":"https://api.vinaid.vn/api/terminalChangeNotifications",
            "url_limit_quantity":"https://api.vinaid.vn:1443/api/events/quantity-n-quota",
            "url_pccovid":"https://api.vinaid.vn:1443/api/externalSystemAttendance"

        },
		"api_path":{
            "url_whitelist":"api/events/white-list/v2",
            "url_keep_alive":"api/terminalState/v2",
            "url_post_attendance":"api/attendance/bulk-upload",
            "url_post_semiboarding":"api/attendance/bulk-upload/semi-boarding",
            "url_delete_notification":"api/terminalChangeNotifications",
            "url_limit_quantity":"api/events/quantity-n-quota",
            "url_pccovid":"api/externalSystemAttendance"

        },
        "device":{
			"prefix_qr_vinaid":"my.vinaid.vn",
        	"enable_lcd":false, //RFU
            "enable_limit_quantity":false,
            "enable_accesscontrol":true,
            "enable_semiboarding_access":false,
            "K3Reader": "/dev/ttyUSB0",
            "enable_tempsafety":true,
            "set_tempsafetylevel":0,
            "external_usb": "/dev/ttyUSB1",
			"external_baudrate":38400,
            "bEnable_WalkGate":true, //Relay Control
            "bEnable_BycleGate":true,
            "external_usb_cmd":"OP\r",
            "qr1_enable":false,
            "qr_reader_input":"/dev/input/event0",
            "qr2_enable":false,
            "qr_reader_input2":"/dev/input/event2",
            "qr_covid_tag":true,
            "qr_cipher":true,
			"postattendance_time":5000,
            "keep_alive_time":50000,
            "whitelist_time":300000
        },
        "message":{
            "lang":"VN",
            "default_msg":{
                "msg":"VINAID          ",
                "led":"LED_YELLOW",
                "timeout": 1000
            },
            "device_failed":{
                "msg":"THE BI LOI",
                "led":"LED_RED",
                "timeout": 1000
            },
            "tag_success":{
                "msg":"XIN CHAO",
                "led":"LED_GREEN",
                "timeout": 3000
            },
            "tag_semi_success":{
                "msg":"NHAN SUAT AN    ",
                "led":"LED_GREEN",
                "timeout": 3000
            },
            "tag_failed":{
                "msg":"THE KHONG HOP LE",
                "led":"LED_RED",
                "timeout": 3000
            },
            "limit_quantity_in":{
                "msg":"XIN CHAO",
                "led":"LED_GREEN",
                "timeout": 1000
            },
            "limit_quantity_out":{
                "msg":"XIN CHAO",
                "led":"LED_GREEN",
                "timeout": 1000
            },
            "limit_quantity_full":{
                "msg":"DA DU SO LUONG",
                "led":"LED_RED",
                "timeout": 2000
            },
            "no_event_time":{
                "msg":"KHONG CO SU KIEN",
                "led":"LED_RED",
                "timeout": 1000
            }
        },
        "external_device":{
			"temperature":{
				"alarm_upper_limit":36.9,
				"output_signal":0,  
				"mode":0,
				"tempformat":0, 
				"msg_access":"Please Tap card!",
				"msg_remind":"Please Measure Temperature!",
				"timeout": 15000, 
				"msg_reject":"Please Retry Measure!",
				"timeout_reject":3000
			}
        }
    }
}